epoch,accuracy,loss,lr,val_accuracy,val_loss
32,0.7211155295372009,1.7235115766525269,0.0069999998,0.8027888536453247,1.229841947555542
33,0.7509959936141968,1.3101537227630615,0.0069999998,0.7908366322517395,1.1540228128433228
34,0.7709163427352905,1.2249423265457153,0.0069999998,0.8067728877067566,1.1116671562194824
35,0.7848605513572693,1.0665931701660156,0.0069999998,0.8266932368278503,1.0557427406311035
36,0.7981407642364502,0.9887325763702393,0.0069999998,0.8147410154342651,1.0684330463409424
37,0.8134130239486694,0.892603874206543,0.0069999998,0.8187251091003418,1.0058988332748413
38,0.8154050707817078,0.8536931276321411,0.0069999998,0.8167330622673035,1.039857268333435
39,0.8187251091003418,0.790195882320404,0.0069999998,0.824701189994812,1.04544198513031
40,0.8446215391159058,0.6839570999145508,0.0069999998,0.8227091431617737,1.0471011400222778
41,0.8346613645553589,0.7574677467346191,0.0069999998,0.8187251091003418,1.072014331817627
42,0.8486055731773376,0.668323278427124,0.0069999998,0.824701189994812,1.051705241203308
43,0.8598937392234802,0.5850597620010376,0.0069999998,0.824701189994812,1.050781011581421
44,0.8479415774345398,0.6335065960884094,0.0069999998,0.8127490282058716,1.1175239086151123
45,0.8745020031929016,0.5175376534461975,0.0069999998,0.8147410154342651,1.1463056802749634
46,0.8605577945709229,0.5186676979064941,0.0069999998,0.8187251091003418,1.0704420804977417
47,0.857237696647644,0.5357261896133423,0.0069999998,0.8167330622673035,1.0590046644210815
48,0.8804780840873718,0.4422720968723297,0.0023333333,0.824701189994812,1.058106541633606
49,0.9037184715270996,0.35837051272392273,0.0023333333,0.8266932368278503,1.058685064315796
50,0.886454164981842,0.38939496874809265,0.0023333333,0.8346613645553589,1.0570170879364014
51,0.9010624289512634,0.38411596417427063,0.0023333333,0.8386453986167908,1.0698156356811523
52,0.8930943012237549,0.36031460762023926,0.0023333333,0.8306772708892822,1.0800666809082031
53,0.8977423906326294,0.36809447407722473,0.0023333333,0.8286852836608887,1.0563867092132568
54,0.8970783352851868,0.3570977747440338,0.0023333333,0.824701189994812,1.0987787246704102
55,0.9017264246940613,0.34000182151794434,0.0023333333,0.8266932368278503,1.1098463535308838
56,0.9023904204368591,0.32420220971107483,0.0023333333,0.8346613645553589,1.1029855012893677
57,0.9083665609359741,0.3254164457321167,0.0023333333,0.8326693177223206,1.0843299627304077
58,0.9083665609359741,0.3291899859905243,0.00077777775,0.8366534113883972,1.0759550333023071
59,0.9017264246940613,0.33630502223968506,0.00077777775,0.8386453986167908,1.0813708305358887
60,0.9050464630126953,0.3099379539489746,0.00077777775,0.8366534113883972,1.093079686164856
61,0.9077025055885315,0.3173069357872009,0.00077777775,0.8326693177223206,1.0851497650146484
62,0.9150066375732422,0.27565693855285645,0.00077777775,0.8406374454498291,1.0859297513961792
63,0.91567063331604,0.2802585959434509,0.00077777775,0.8346613645553589,1.0861016511917114
64,0.9136786460876465,0.2978594899177551,0.00077777775,0.8386453986167908,1.0829793214797974
65,0.9169986844062805,0.28583914041519165,0.00077777775,0.8406374454498291,1.0891555547714233
66,0.9070385098457336,0.2866758108139038,0.00077777775,0.8386453986167908,1.0905873775482178
67,0.9096945524215698,0.29344677925109863,0.00077777775,0.8386453986167908,1.0930650234222412
68,0.9183266758918762,0.26209646463394165,0.00025925925,0.8446215391159058,1.0954225063323975
69,0.9110226035118103,0.2955802381038666,0.00025925925,0.8426294922828674,1.0971781015396118
70,0.9077025055885315,0.2946941554546356,0.00025925925,0.8386453986167908,1.0989540815353394
71,0.9150066375732422,0.27703776955604553,0.00025925925,0.8386453986167908,1.1023443937301636
72,0.9203187227249146,0.2493221014738083,0.00025925925,0.8386453986167908,1.1005215644836426
73,0.91567063331604,0.28812292218208313,0.00025925925,0.8386453986167908,1.1003494262695312
74,0.9103585481643677,0.2945539355278015,0.00025925925,0.8406374454498291,1.1006922721862793
75,0.909030556678772,0.28818219900131226,0.00025925925,0.8386453986167908,1.1001750230789185
76,0.9256308078765869,0.253114253282547,0.00025925925,0.8426294922828674,1.1018085479736328
77,0.9209827184677124,0.24530333280563354,0.00025925925,0.8406374454498291,1.1046725511550903
78,0.9203187227249146,0.23481129109859467,8.641975e-05,0.8406374454498291,1.1052122116088867
79,0.9143426418304443,0.27504679560661316,8.641975e-05,0.8406374454498291,1.1049319505691528
80,0.9103585481643677,0.2896139621734619,8.641975e-05,0.8406374454498291,1.1051048040390015
81,0.9189907312393188,0.270449697971344,8.641975e-05,0.8406374454498291,1.104940414428711
82,0.9203187227249146,0.2622526288032532,8.641975e-05,0.8406374454498291,1.1051071882247925
83,0.9209827184677124,0.25028058886528015,8.641975e-05,0.8406374454498291,1.105739951133728
84,0.9203187227249146,0.26286089420318604,8.641975e-05,0.8406374454498291,1.1054513454437256
85,0.9196547269821167,0.25905102491378784,8.641975e-05,0.8426294922828674,1.1045889854431152
86,0.9243028163909912,0.2483881562948227,8.641975e-05,0.8426294922828674,1.1050710678100586
87,0.9103585481643677,0.28878650069236755,8.641975e-05,0.8426294922828674,1.10570228099823
88,0.9249668121337891,0.2597501873970032,2.8806584e-05,0.8426294922828674,1.1056804656982422
89,0.9183266758918762,0.27004191279411316,2.8806584e-05,0.8426294922828674,1.1054437160491943
90,0.921646773815155,0.2560042142868042,2.8806584e-05,0.8426294922828674,1.105446219444275
91,0.9316068887710571,0.22058995068073273,2.8806584e-05,0.8426294922828674,1.10542631149292
92,0.9183266758918762,0.26010745763778687,2.8806584e-05,0.8426294922828674,1.1056491136550903
93,0.9196547269821167,0.2715104818344116,2.8806584e-05,0.8406374454498291,1.1052496433258057
94,0.9103585481643677,0.28822898864746094,2.8806584e-05,0.8406374454498291,1.104809045791626
95,0.9150066375732422,0.269727885723114,2.8806584e-05,0.8406374454498291,1.104462742805481
96,0.912350594997406,0.27493569254875183,2.8806584e-05,0.8406374454498291,1.104987382888794
97,0.9203187227249146,0.23148195445537567,2.8806584e-05,0.8406374454498291,1.1047155857086182
98,0.9203187227249146,0.2501809597015381,9.602195e-06,0.8406374454498291,1.1048792600631714
99,0.9189907312393188,0.27853646874427795,9.602195e-06,0.8406374454498291,1.1048777103424072
100,0.909030556678772,0.29537495970726013,9.602195e-06,0.8406374454498291,1.1047366857528687
101,0.9116865992546082,0.26419398188591003,9.602195e-06,0.8406374454498291,1.1048158407211304
102,0.9163346886634827,0.2735985219478607,9.602195e-06,0.8406374454498291,1.1049140691757202
103,0.9209827184677124,0.24111893773078918,9.602195e-06,0.8406374454498291,1.1049593687057495
104,0.9103585481643677,0.28253862261772156,9.602195e-06,0.8406374454498291,1.1048465967178345
105,0.9203187227249146,0.24788647890090942,9.602195e-06,0.8406374454498291,1.1049340963363647
106,0.9077025055885315,0.30451491475105286,9.602195e-06,0.8406374454498291,1.104753017425537
107,0.921646773815155,0.24944239854812622,9.602195e-06,0.8406374454498291,1.1047592163085938
108,0.9276228547096252,0.21571631729602814,3.2007317e-06,0.8406374454498291,1.104773759841919
109,0.9176626801490784,0.24504128098487854,3.2007317e-06,0.8406374454498291,1.1047669649124146
110,0.9189907312393188,0.2704921364784241,3.2007317e-06,0.8406374454498291,1.104805588722229
111,0.9096945524215698,0.2652606964111328,3.2007317e-06,0.8406374454498291,1.104788899421692
112,0.9209827184677124,0.26706093549728394,3.2007317e-06,0.8406374454498291,1.1048022508621216
113,0.91567063331604,0.2804272472858429,3.2007317e-06,0.8406374454498291,1.1047930717468262
114,0.9223107695579529,0.25508543848991394,3.2007317e-06,0.8406374454498291,1.1047625541687012
115,0.921646773815155,0.2397608458995819,3.2007317e-06,0.8406374454498291,1.1047770977020264
116,0.9143426418304443,0.26555538177490234,3.2007317e-06,0.8406374454498291,1.1047812700271606
117,0.9150066375732422,0.2846151888370514,3.2007317e-06,0.8406374454498291,1.104811668395996
118,0.9163346886634827,0.2974579632282257,1.0669106e-06,0.8406374454498291,1.104801058769226
119,0.9110226035118103,0.2701791822910309,1.0669106e-06,0.8406374454498291,1.1048009395599365
120,0.909030556678772,0.29369762539863586,1.0669106e-06,0.8406374454498291,1.1047879457473755
121,0.9110226035118103,0.2806186079978943,1.0669106e-06,0.8406374454498291,1.1047812700271606
122,0.9203187227249146,0.24439500272274017,1.0669106e-06,0.8406374454498291,1.1047676801681519
123,0.9070385098457336,0.29167091846466064,1.0669106e-06,0.8406374454498291,1.1047654151916504
124,0.9229747653007507,0.2667314410209656,1.0669106e-06,0.8406374454498291,1.104758620262146
125,0.9196547269821167,0.2744968831539154,1.0669106e-06,0.8406374454498291,1.1047508716583252
126,0.9110226035118103,0.26436498761177063,1.0669106e-06,0.8406374454498291,1.1047425270080566
127,0.9070385098457336,0.28508254885673523,1.0669106e-06,0.8406374454498291,1.1047500371932983
128,0.91567063331604,0.24924549460411072,3.5563687e-07,0.8406374454498291,1.1047484874725342
129,0.9262948036193848,0.233637735247612,3.5563687e-07,0.8406374454498291,1.104748010635376
130,0.91567063331604,0.254001259803772,3.5563687e-07,0.8406374454498291,1.1047477722167969
131,0.9243028163909912,0.24302060902118683,3.5563687e-07,0.8406374454498291,1.1047465801239014
132,0.9243028163909912,0.2548634111881256,3.5563687e-07,0.8406374454498291,1.104748010635376
133,0.91567063331604,0.27086251974105835,3.5563687e-07,0.8406374454498291,1.1047518253326416
134,0.9183266758918762,0.27115610241889954,3.5563687e-07,0.8406374454498291,1.104756474494934
135,0.9169986844062805,0.26519039273262024,3.5563687e-07,0.8406374454498291,1.1047537326812744
136,0.9269588589668274,0.2448320984840393,3.5563687e-07,0.8406374454498291,1.1047592163085938
137,0.9262948036193848,0.24098815023899078,3.5563687e-07,0.8406374454498291,1.1047559976577759
138,0.921646773815155,0.26359373331069946,1.1854562e-07,0.8406374454498291,1.1047563552856445
139,0.9189907312393188,0.2596149146556854,1.1854562e-07,0.8406374454498291,1.1047563552856445
140,0.9103585481643677,0.28959760069847107,1.1854562e-07,0.8406374454498291,1.1047563552856445
141,0.9209827184677124,0.2531088888645172,1.1854562e-07,0.8406374454498291,1.1047557592391968
142,0.9143426418304443,0.27386099100112915,1.1854562e-07,0.8406374454498291,1.1047552824020386
143,0.9183266758918762,0.2446349710226059,1.1854562e-07,0.8406374454498291,1.104756236076355
144,0.9150066375732422,0.28715795278549194,1.1854562e-07,0.8406374454498291,1.104753017425537
145,0.9203187227249146,0.2581903636455536,1.1854562e-07,0.8406374454498291,1.1047532558441162
146,0.9163346886634827,0.24384552240371704,1.1854562e-07,0.8406374454498291,1.104754090309143
147,0.9282868504524231,0.23785534501075745,1.1854562e-07,0.8406374454498291,1.104753851890564
148,0.9196547269821167,0.2459992617368698,3.9515207e-08,0.8406374454498291,1.1047546863555908
149,0.9130145907402039,0.27642160654067993,3.9515207e-08,0.8406374454498291,1.1047548055648804
150,0.9103585481643677,0.2682119905948639,3.9515207e-08,0.8406374454498291,1.1047546863555908
151,0.91567063331604,0.28653135895729065,3.9515207e-08,0.8406374454498291,1.1047543287277222
152,0.928950846195221,0.23727662861347198,3.9515207e-08,0.8406374454498291,1.1047545671463013
153,0.9176626801490784,0.25317254662513733,3.9515207e-08,0.8406374454498291,1.1047543287277222
154,0.9183266758918762,0.27675965428352356,3.9515207e-08,0.8406374454498291,1.1047536134719849
155,0.9130145907402039,0.2742433249950409,3.9515207e-08,0.8406374454498291,1.1047537326812744
156,0.9136786460876465,0.2746342420578003,3.9515207e-08,0.8406374454498291,1.104753851890564
157,0.9163346886634827,0.25821611285209656,3.9515207e-08,0.8406374454498291,1.1047534942626953
158,0.9203187227249146,0.25530633330345154,1.3171736e-08,0.8406374454498291,1.1047533750534058
159,0.9196547269821167,0.26606273651123047,1.3171736e-08,0.8406374454498291,1.1047533750534058
160,0.9209827184677124,0.23316799104213715,1.3171736e-08,0.8406374454498291,1.1047532558441162
161,0.9183266758918762,0.2538054883480072,1.3171736e-08,0.8406374454498291,1.1047533750534058
162,0.9150066375732422,0.27839553356170654,1.3171736e-08,0.8406374454498291,1.1047532558441162
163,0.9209827184677124,0.2597544491291046,1.3171736e-08,0.8406374454498291,1.1047533750534058
164,0.9183266758918762,0.24227240681648254,1.3171736e-08,0.8406374454498291,1.1047531366348267
165,0.9236387610435486,0.23526312410831451,1.3171736e-08,0.8406374454498291,1.1047528982162476
166,0.921646773815155,0.25542619824409485,1.3171736e-08,0.8406374454498291,1.104753017425537
167,0.9243028163909912,0.23639518022537231,1.3171736e-08,0.8406374454498291,1.104753017425537
168,0.9163346886634827,0.2612718939781189,4.3905786e-09,0.8406374454498291,1.1047531366348267
169,0.9183266758918762,0.26988694071769714,4.3905786e-09,0.8406374454498291,1.104752779006958
170,0.9209827184677124,0.23923984169960022,4.3905786e-09,0.8406374454498291,1.1047528982162476
171,0.9223107695579529,0.25085964798927307,4.3905786e-09,0.8406374454498291,1.104752779006958
172,0.921646773815155,0.2622772753238678,4.3905786e-09,0.8406374454498291,1.104753017425537
173,0.9136786460876465,0.26996707916259766,4.3905786e-09,0.8406374454498291,1.1047528982162476
174,0.9116865992546082,0.27111485600471497,4.3905786e-09,0.8406374454498291,1.104752779006958
175,0.9103585481643677,0.27293622493743896,4.3905786e-09,0.8406374454498291,1.1047528982162476
176,0.9296149015426636,0.26546362042427063,4.3905786e-09,0.8406374454498291,1.104752779006958
177,0.9077025055885315,0.2950212359428406,4.3905786e-09,0.8406374454498291,1.104752779006958
178,0.9196547269821167,0.2664768099784851,1.4635262e-09,0.8406374454498291,1.104752779006958
179,0.9249668121337891,0.2612852454185486,1.4635262e-09,0.8406374454498291,1.104752779006958
180,0.9262948036193848,0.24487411975860596,1.4635262e-09,0.8406374454498291,1.104752779006958
181,0.9249668121337891,0.24034832417964935,1.4635262e-09,0.8406374454498291,1.104752779006958
182,0.912350594997406,0.28257399797439575,1.4635262e-09,0.8406374454498291,1.104752779006958
183,0.9103585481643677,0.29064205288887024,1.4635262e-09,0.8406374454498291,1.1047526597976685
184,0.9169986844062805,0.26500365138053894,1.4635262e-09,0.8406374454498291,1.1047526597976685
185,0.9209827184677124,0.2579224407672882,1.4635262e-09,0.8406374454498291,1.104752779006958
186,0.921646773815155,0.24452480673789978,1.4635262e-09,0.8406374454498291,1.104752779006958
187,0.9176626801490784,0.25614073872566223,1.4635262e-09,0.8406374454498291,1.1047526597976685
188,0.9169986844062805,0.26388293504714966,4.8784204e-10,0.8406374454498291,1.1047526597976685
189,0.9150066375732422,0.285261332988739,4.8784204e-10,0.8406374454498291,1.1047526597976685
190,0.9189907312393188,0.27256134152412415,4.8784204e-10,0.8406374454498291,1.1047526597976685
191,0.9256308078765869,0.24258512258529663,4.8784204e-10,0.8406374454498291,1.1047526597976685
192,0.9196547269821167,0.2803177237510681,4.8784204e-10,0.8406374454498291,1.1047526597976685
193,0.9183266758918762,0.26469963788986206,4.8784204e-10,0.8406374454498291,1.1047526597976685
194,0.9256308078765869,0.2199985682964325,4.8784204e-10,0.8406374454498291,1.1047526597976685
195,0.9143426418304443,0.2613794207572937,4.8784204e-10,0.8406374454498291,1.1047526597976685
196,0.9236387610435486,0.26569831371307373,4.8784204e-10,0.8406374454498291,1.1047526597976685
197,0.9189907312393188,0.25637340545654297,4.8784204e-10,0.8406374454498291,1.1047526597976685
198,0.9196547269821167,0.24452638626098633,1.6261402e-10,0.8406374454498291,1.1047526597976685
199,0.9110226035118103,0.2841583788394928,1.6261402e-10,0.8406374454498291,1.1047526597976685
200,0.9196547269821167,0.2536831200122833,1.6261402e-10,0.8406374454498291,1.1047526597976685
201,0.9150066375732422,0.26939907670021057,1.6261402e-10,0.8406374454498291,1.1047526597976685
202,0.9223107695579529,0.26763007044792175,1.6261402e-10,0.8406374454498291,1.1047526597976685
203,0.9183266758918762,0.2589576542377472,1.6261402e-10,0.8406374454498291,1.1047526597976685
204,0.9196547269821167,0.24844489991664886,1.6261402e-10,0.8406374454498291,1.1047526597976685
205,0.9249668121337891,0.2527419328689575,1.6261402e-10,0.8406374454498291,1.1047526597976685
206,0.9243028163909912,0.2500723898410797,1.6261402e-10,0.8406374454498291,1.1047526597976685
207,0.9223107695579529,0.24446138739585876,1.6261402e-10,0.8406374454498291,1.1047526597976685
208,0.9096945524215698,0.28051990270614624,5.4204672e-11,0.8406374454498291,1.1047526597976685
209,0.9130145907402039,0.27866843342781067,5.4204672e-11,0.8406374454498291,1.1047526597976685
210,0.9150066375732422,0.26745152473449707,5.4204672e-11,0.8406374454498291,1.1047526597976685
211,0.9110226035118103,0.29216837882995605,5.4204672e-11,0.8406374454498291,1.1047526597976685
212,0.9189907312393188,0.27590644359588623,5.4204672e-11,0.8406374454498291,1.1047526597976685
213,0.9163346886634827,0.2776607871055603,5.4204672e-11,0.8406374454498291,1.1047526597976685
214,0.9196547269821167,0.280133992433548,5.4204672e-11,0.8406374454498291,1.1047526597976685
215,0.9203187227249146,0.2696070075035095,5.4204672e-11,0.8406374454498291,1.1047526597976685
216,0.9070385098457336,0.3000059127807617,5.4204672e-11,0.8406374454498291,1.1047526597976685
217,0.9209827184677124,0.27044177055358887,5.4204672e-11,0.8406374454498291,1.1047526597976685
218,0.9063745141029358,0.2958093285560608,1.8068224e-11,0.8406374454498291,1.1047526597976685
219,0.9163346886634827,0.2545470595359802,1.8068224e-11,0.8406374454498291,1.1047526597976685
220,0.9302788972854614,0.24307981133460999,1.8068224e-11,0.8406374454498291,1.1047526597976685
221,0.9150066375732422,0.26591217517852783,1.8068224e-11,0.8406374454498291,1.1047526597976685
222,0.9169986844062805,0.2865646481513977,1.8068224e-11,0.8406374454498291,1.1047526597976685
223,0.9163346886634827,0.269975483417511,1.8068224e-11,0.8406374454498291,1.1047526597976685
224,0.9143426418304443,0.2916071116924286,1.8068224e-11,0.8406374454498291,1.1047526597976685
225,0.9223107695579529,0.249497652053833,1.8068224e-11,0.8406374454498291,1.1047526597976685
226,0.9176626801490784,0.26635923981666565,1.8068224e-11,0.8406374454498291,1.1047526597976685
227,0.9189907312393188,0.2549279034137726,1.8068224e-11,0.8406374454498291,1.1047526597976685
228,0.9243028163909912,0.2872198820114136,6.0227413e-12,0.8406374454498291,1.1047526597976685
229,0.9243028163909912,0.25183621048927307,6.0227413e-12,0.8406374454498291,1.1047526597976685
230,0.9209827184677124,0.25703123211860657,6.0227413e-12,0.8406374454498291,1.1047526597976685
231,0.9136786460876465,0.3077879548072815,6.0227413e-12,0.8406374454498291,1.1047526597976685
232,0.9223107695579529,0.24908840656280518,6.0227413e-12,0.8406374454498291,1.1047526597976685
233,0.9150066375732422,0.25275325775146484,6.0227413e-12,0.8406374454498291,1.1047526597976685
234,0.9130145907402039,0.2587403655052185,6.0227413e-12,0.8406374454498291,1.1047526597976685
235,0.9276228547096252,0.22863979637622833,6.0227413e-12,0.8406374454498291,1.1047526597976685
236,0.9176626801490784,0.268387109041214,6.0227413e-12,0.8406374454498291,1.1047526597976685
237,0.9103585481643677,0.2865709960460663,6.0227413e-12,0.8406374454498291,1.1047526597976685
238,0.9203187227249146,0.2428731471300125,2.0075805e-12,0.8406374454498291,1.1047526597976685
239,0.9143426418304443,0.2792673408985138,2.0075805e-12,0.8406374454498291,1.1047526597976685
240,0.9223107695579529,0.2504124939441681,2.0075805e-12,0.8406374454498291,1.1047526597976685
241,0.9096945524215698,0.27225857973098755,2.0075805e-12,0.8406374454498291,1.1047526597976685
242,0.9103585481643677,0.2783026397228241,2.0075805e-12,0.8406374454498291,1.1047526597976685
243,0.9189907312393188,0.27216973900794983,2.0075805e-12,0.8406374454498291,1.1047526597976685
244,0.9103585481643677,0.28118857741355896,2.0075805e-12,0.8406374454498291,1.1047526597976685
245,0.9229747653007507,0.2490568459033966,2.0075805e-12,0.8406374454498291,1.1047526597976685
246,0.9203187227249146,0.2532086968421936,2.0075805e-12,0.8406374454498291,1.1047526597976685
247,0.909030556678772,0.2951676845550537,2.0075805e-12,0.8406374454498291,1.1047526597976685
248,0.9189907312393188,0.2611199617385864,6.691935e-13,0.8406374454498291,1.1047526597976685
249,0.9282868504524231,0.24492895603179932,6.691935e-13,0.8406374454498291,1.1047526597976685
250,0.9176626801490784,0.25687599182128906,6.691935e-13,0.8406374454498291,1.1047526597976685
251,0.9136786460876465,0.2587892711162567,6.691935e-13,0.8406374454498291,1.1047526597976685
252,0.9189907312393188,0.2687772214412689,6.691935e-13,0.8406374454498291,1.1047526597976685
253,0.912350594997406,0.27316948771476746,6.691935e-13,0.8406374454498291,1.1047526597976685
254,0.9116865992546082,0.28063827753067017,6.691935e-13,0.8406374454498291,1.1047526597976685
255,0.9223107695579529,0.23861701786518097,6.691935e-13,0.8406374454498291,1.1047526597976685
256,0.9183266758918762,0.27162888646125793,6.691935e-13,0.8406374454498291,1.1047526597976685
257,0.9189907312393188,0.2630777955055237,6.691935e-13,0.8406374454498291,1.1047526597976685
258,0.9163346886634827,0.26111090183258057,2.230645e-13,0.8406374454498291,1.1047526597976685
259,0.9163346886634827,0.2381960153579712,2.230645e-13,0.8406374454498291,1.1047526597976685
260,0.9183266758918762,0.2526549994945526,2.230645e-13,0.8406374454498291,1.1047526597976685
261,0.9276228547096252,0.2339293509721756,2.230645e-13,0.8406374454498291,1.1047526597976685
262,0.912350594997406,0.29388684034347534,2.230645e-13,0.8406374454498291,1.1047526597976685
263,0.9243028163909912,0.26355352997779846,2.230645e-13,0.8406374454498291,1.1047526597976685
264,0.912350594997406,0.29625144600868225,2.230645e-13,0.8406374454498291,1.1047526597976685
265,0.9130145907402039,0.26665809750556946,2.230645e-13,0.8406374454498291,1.1047526597976685
266,0.9243028163909912,0.2383979856967926,2.230645e-13,0.8406374454498291,1.1047526597976685
267,0.9183266758918762,0.259807825088501,2.230645e-13,0.8406374454498291,1.1047526597976685
268,0.9189907312393188,0.2772723138332367,7.4354836e-14,0.8406374454498291,1.1047526597976685
269,0.9189907312393188,0.24603542685508728,7.4354836e-14,0.8406374454498291,1.1047526597976685
270,0.9083665609359741,0.2768656313419342,7.4354836e-14,0.8406374454498291,1.1047526597976685
271,0.9196547269821167,0.2577751874923706,7.4354836e-14,0.8406374454498291,1.1047526597976685
272,0.91567063331604,0.2857230007648468,7.4354836e-14,0.8406374454498291,1.1047526597976685
273,0.921646773815155,0.25650152564048767,7.4354836e-14,0.8406374454498291,1.1047526597976685
274,0.9229747653007507,0.24030177295207977,7.4354836e-14,0.8406374454498291,1.1047526597976685
275,0.9169986844062805,0.26363593339920044,7.4354836e-14,0.8406374454498291,1.1047526597976685
276,0.9256308078765869,0.261873334646225,7.4354836e-14,0.8406374454498291,1.1047526597976685
277,0.9136786460876465,0.2650185525417328,7.4354836e-14,0.8406374454498291,1.1047526597976685
278,0.9169986844062805,0.2521553933620453,2.4784945e-14,0.8406374454498291,1.1047526597976685
279,0.91567063331604,0.26183077692985535,2.4784945e-14,0.8406374454498291,1.1047526597976685
280,0.9189907312393188,0.24611634016036987,2.4784945e-14,0.8406374454498291,1.1047526597976685
281,0.9236387610435486,0.24445831775665283,2.4784945e-14,0.8406374454498291,1.1047526597976685
282,0.9256308078765869,0.23474183678627014,2.4784945e-14,0.8406374454498291,1.1047526597976685
283,0.9209827184677124,0.25241562724113464,2.4784945e-14,0.8406374454498291,1.1047526597976685
284,0.9243028163909912,0.2509932518005371,2.4784945e-14,0.8406374454498291,1.1047526597976685
285,0.9176626801490784,0.2423868179321289,2.4784945e-14,0.8406374454498291,1.1047526597976685
286,0.9209827184677124,0.24382013082504272,2.4784945e-14,0.8406374454498291,1.1047526597976685
287,0.91567063331604,0.28203442692756653,2.4784945e-14,0.8406374454498291,1.1047526597976685
288,0.9269588589668274,0.241411492228508,8.2616485e-15,0.8406374454498291,1.1047526597976685
289,0.9282868504524231,0.22445273399353027,8.2616485e-15,0.8406374454498291,1.1047526597976685
290,0.9103585481643677,0.28838708996772766,8.2616485e-15,0.8406374454498291,1.1047526597976685
291,0.9110226035118103,0.27402976155281067,8.2616485e-15,0.8406374454498291,1.1047526597976685
292,0.9136786460876465,0.30694350600242615,8.2616485e-15,0.8406374454498291,1.1047526597976685
293,0.9183266758918762,0.26271453499794006,8.2616485e-15,0.8406374454498291,1.1047526597976685
294,0.9176626801490784,0.2554125487804413,8.2616485e-15,0.8406374454498291,1.1047526597976685
295,0.9096945524215698,0.28277528285980225,8.2616485e-15,0.8406374454498291,1.1047526597976685
296,0.9096945524215698,0.2993372082710266,8.2616485e-15,0.8406374454498291,1.1047526597976685
297,0.91567063331604,0.26696717739105225,8.2616485e-15,0.8406374454498291,1.1047526597976685
298,0.9236387610435486,0.2562545835971832,2.7538828e-15,0.8406374454498291,1.1047526597976685
299,0.9110226035118103,0.28681471943855286,2.7538828e-15,0.8406374454498291,1.1047526597976685
