epoch,accuracy,loss,lr,val_accuracy,val_loss
0,0.0045610032975673676,6.00220251083374,0.022,0.006825938355177641,6.012747287750244
1,0.015963511541485786,5.909377574920654,0.022,0.013651876710355282,6.018651485443115
2,0.03534777835011482,5.687380313873291,0.022,0.030716722831130028,5.910658836364746
3,0.08323831111192703,5.203558921813965,0.022,0.03412969410419464,5.765262603759766
4,0.13797035813331604,4.598953723907471,0.022,0.07167235761880875,5.491591453552246
5,0.216647669672966,3.983659505844116,0.022,0.15699659287929535,5.0370025634765625
6,0.31356897950172424,3.325974702835083,0.022,0.17747440934181213,4.853209495544434
7,0.3785632848739624,2.9780001640319824,0.022,0.24914675951004028,4.5148210525512695
8,0.37400227785110474,2.868964910507202,0.022,0.27303755283355713,4.377305030822754
9,0.4378563165664673,2.559612512588501,0.022,0.27986347675323486,4.188426494598389
10,0.4538198411464691,2.4436118602752686,0.022,0.32081910967826843,4.111323356628418
11,0.4675028622150421,2.4019813537597656,0.022,0.27986347675323486,4.0637617111206055
12,0.47092360258102417,2.3216938972473145,0.022,0.28327643871307373,4.320974826812744
13,0.46978336572647095,2.4852817058563232,0.022,0.31058019399642944,4.040251731872559
14,0.5359178781509399,2.088721752166748,0.022,0.32764506340026855,3.9934194087982178
15,0.4743443429470062,2.3936774730682373,0.022,0.32764506340026855,3.9012668132781982
16,0.4800456166267395,2.4232239723205566,0.022,0.2593856751918793,4.321155548095703
17,0.4481185972690582,2.672926425933838,0.022,0.276450514793396,4.232542991638184
18,0.42873433232307434,2.829810857772827,0.022,0.24232082068920135,4.477143287658691
19,0.3728620409965515,3.455923080444336,0.022,0.22184300422668457,4.509854316711426
20,0.3386545181274414,3.6956660747528076,0.022,0.22184300422668457,4.729125022888184
21,0.312428742647171,3.9440863132476807,0.022,0.180887371301651,4.798659801483154
22,0.3055872321128845,3.8549556732177734,0.022,0.20136518776416779,4.809678077697754
23,0.2633979618549347,4.2152814865112305,0.022,0.2081911265850067,4.625146865844727
24,0.2827822268009186,4.372733116149902,0.022,0.180887371301651,4.991543292999268
25,0.2645381987094879,4.2982096672058105,0.022,0.16040955483913422,5.0843586921691895
26,0.34093499183654785,3.6294405460357666,0.007333333,0.22525596618652344,4.399969100952148
27,0.42075255513191223,2.7343368530273438,0.007333333,0.27986347675323486,4.206900596618652
28,0.46864309906959534,2.639958620071411,0.007333333,0.3344709873199463,4.0739970207214355
29,0.516533613204956,2.221491575241089,0.007333333,0.3344709873199463,4.090455532073975
30,0.5564424395561218,1.9771037101745605,0.007333333,0.36518770456314087,4.056288719177246
31,0.5689851641654968,1.9196245670318604,0.007333333,0.361774742603302,3.8748037815093994
32,0.6020524501800537,1.7233396768569946,0.007333333,0.37542662024497986,3.8199784755706787
33,0.6282781958580017,1.4901148080825806,0.007333333,0.3890784978866577,3.81380033493042
34,0.6145952343940735,1.6204441785812378,0.007333333,0.37542662024497986,3.8979692459106445
35,0.6545040011405945,1.4185948371887207,0.007333333,0.40273037552833557,3.7789344787597656
36,0.6681870222091675,1.3767114877700806,0.007333333,0.3890784978866577,3.754349946975708
37,0.6602052450180054,1.385589361190796,0.007333333,0.41296929121017456,3.870990753173828
38,0.6955530047416687,1.2175168991088867,0.007333333,0.41296929121017456,3.7857956886291504
39,0.6693272590637207,1.2578459978103638,0.007333333,0.43344709277153015,3.734302043914795
40,0.7023945450782776,1.1986790895462036,0.007333333,0.43344709277153015,3.799344301223755
41,0.704675018787384,1.096313238143921,0.007333333,0.4402730464935303,3.8696014881134033
42,0.718358039855957,1.063072681427002,0.007333333,0.46075084805488586,3.8524649143218994
43,0.7217788100242615,1.1224548816680908,0.007333333,0.4505119323730469,3.9762351512908936
44,0.7194982767105103,1.07632315158844,0.007333333,0.44368600845336914,3.887303352355957
45,0.744583785533905,1.0226508378982544,0.007333333,0.457337886095047,4.065132141113281
46,0.7297605276107788,1.0196949243545532,0.007333333,0.4744027256965637,3.929067611694336
47,0.7525655627250671,0.9201518893241882,0.007333333,0.4505119323730469,4.233288288116455
48,0.7514253258705139,0.9022968411445618,0.007333333,0.4948805570602417,4.069814682006836
49,0.7571265697479248,0.8612529039382935,0.007333333,0.5085324048995972,3.940007209777832
50,0.7936145663261414,0.7837554216384888,0.0024444445,0.5153583884239197,4.000948429107666
51,0.7913340926170349,0.8082711100578308,0.0024444445,0.5153583884239197,3.986834764480591
52,0.785632848739624,0.7014013528823853,0.0024444445,0.5358361601829529,3.994706869125366
53,0.7901938557624817,0.6768864393234253,0.0024444445,0.5290102362632751,4.024147033691406
54,0.799315869808197,0.6409902572631836,0.0024444445,0.5392491221427917,4.027149677276611
55,0.8175598382949829,0.6828261017799377,0.0024444445,0.5392491221427917,4.091706275939941
56,0.8072975873947144,0.6927766799926758,0.0024444445,0.5426621437072754,4.140178680419922
57,0.8152793645858765,0.6302246451377869,0.0024444445,0.5426621437072754,4.010059833526611
58,0.8015963435173035,0.6889344453811646,0.0024444445,0.5460751056671143,4.117433071136475
59,0.8369441032409668,0.5630074143409729,0.0024444445,0.5494880676269531,4.140376091003418
60,0.839224636554718,0.5107367038726807,0.0008148148,0.5460751056671143,4.144083023071289
61,0.8358038663864136,0.5801741480827332,0.0008148148,0.5460751056671143,4.164248943328857
62,0.8323830962181091,0.5582950711250305,0.0008148148,0.5460751056671143,4.16818380355835
63,0.8312428593635559,0.5852909684181213,0.0008148148,0.5460751056671143,4.133549690246582
64,0.8312428593635559,0.5504987835884094,0.0008148148,0.5460751056671143,4.135054588317871
65,0.8323830962181091,0.5233190655708313,0.0008148148,0.552901029586792,4.143741607666016
66,0.8050171136856079,0.656542181968689,0.0008148148,0.5563139915466309,4.141050815582275
67,0.8312428593635559,0.567951500415802,0.0008148148,0.5563139915466309,4.195825576782227
68,0.8403648734092712,0.5156553387641907,0.0008148148,0.5494880676269531,4.19399356842041
69,0.825541615486145,0.6022915840148926,0.0008148148,0.5494880676269531,4.187985420227051
70,0.8494868874549866,0.48701199889183044,0.00027160495,0.552901029586792,4.1919965744018555
71,0.8346636295318604,0.529727578163147,0.00027160495,0.552901029586792,4.200294017791748
72,0.8369441032409668,0.5253518223762512,0.00027160495,0.552901029586792,4.193415641784668
73,0.8449258804321289,0.5267142057418823,0.00027160495,0.552901029586792,4.200357437133789
74,0.8483466506004333,0.5500644445419312,0.00027160495,0.552901029586792,4.18498420715332
75,0.8380843997001648,0.5437836050987244,0.00027160495,0.552901029586792,4.199653148651123
76,0.8483466506004333,0.4879658818244934,0.00027160495,0.552901029586792,4.2139739990234375
77,0.8472064137458801,0.5733420848846436,0.00027160495,0.5563139915466309,4.222921371459961
78,0.851767361164093,0.48362451791763306,0.00027160495,0.552901029586792,4.232666015625
79,0.8415051102638245,0.5141873955726624,0.00027160495,0.552901029586792,4.219672203063965
80,0.8551881313323975,0.48989516496658325,9.053498e-05,0.552901029586792,4.225280284881592
81,0.8346636295318604,0.5488043427467346,9.053498e-05,0.5563139915466309,4.22505521774292
82,0.8449258804321289,0.5265567898750305,9.053498e-05,0.5563139915466309,4.224016189575195
83,0.8551881313323975,0.4715562164783478,9.053498e-05,0.5563139915466309,4.2233781814575195
84,0.8380843997001648,0.5295670628547668,9.053498e-05,0.5563139915466309,4.226775169372559
85,0.8494868874549866,0.5100160241127014,9.053498e-05,0.5563139915466309,4.231077671051025
86,0.8403648734092712,0.49425381422042847,9.053498e-05,0.5563139915466309,4.230828762054443
87,0.8506271243095398,0.5279513001441956,9.053498e-05,0.5563139915466309,4.23272705078125
88,0.8437856435775757,0.5203240513801575,9.053498e-05,0.5563139915466309,4.235071182250977
89,0.8483466506004333,0.5047605037689209,9.053498e-05,0.5563139915466309,4.235053062438965
90,0.8426454067230225,0.4998423457145691,3.0178328e-05,0.5563139915466309,4.235142230987549
91,0.8449258804321289,0.5143405199050903,3.0178328e-05,0.5563139915466309,4.234965801239014
92,0.8289623856544495,0.5973274111747742,3.0178328e-05,0.5563139915466309,4.233642578125
93,0.8426454067230225,0.5276245474815369,3.0178328e-05,0.5563139915466309,4.233965873718262
94,0.8494868874549866,0.5087416172027588,3.0178328e-05,0.5563139915466309,4.234872341156006
95,0.851767361164093,0.524014413356781,3.0178328e-05,0.5563139915466309,4.23287296295166
96,0.8460661172866821,0.5291908383369446,3.0178328e-05,0.5563139915466309,4.233476161956787
97,0.8551881313323975,0.5077900290489197,3.0178328e-05,0.5563139915466309,4.234077453613281
98,0.8403648734092712,0.49203455448150635,3.0178328e-05,0.5563139915466309,4.234508991241455
99,0.8483466506004333,0.5093960165977478,3.0178328e-05,0.5563139915466309,4.234543323516846
