epoch,accuracy,loss,lr,val_accuracy,val_loss
0,0.0034207524731755257,6.003443241119385,0.021,0.0034129691775888205,5.997786045074463
1,0.015963511541485786,5.883640289306641,0.021,0.006825938355177641,5.955190658569336
2,0.04446978494524956,5.620084762573242,0.021,0.01706484705209732,5.902965068817139
3,0.09350056946277618,5.132284164428711,0.021,0.07508532702922821,5.532324314117432
4,0.19270239770412445,4.318591594696045,0.021,0.11945392191410065,5.1157636642456055
5,0.3511972725391388,3.2872965335845947,0.021,0.24573378264904022,4.649745464324951
6,0.47662484645843506,2.474921464920044,0.021,0.24573378264904022,4.571943759918213
7,0.5986316800117493,1.913223147392273,0.021,0.33788394927978516,4.1445841789245605
8,0.6351197361946106,1.6039011478424072,0.021,0.361774742603302,3.878908395767212
9,0.6681870222091675,1.420259952545166,0.021,0.4266211688518524,3.813831090927124
10,0.7194982767105103,1.175457239151001,0.021,0.4505119323730469,3.5617480278015137
11,0.7548460364341736,1.0312485694885254,0.021,0.5017064809799194,3.9079205989837646
12,0.7673888206481934,0.972808301448822,0.021,0.5017064809799194,3.8958237171173096
13,0.7594070434570312,0.982936680316925,0.021,0.5255972743034363,3.8883743286132812
14,0.8232611417770386,0.7451997995376587,0.021,0.5426621437072754,3.446134328842163
15,0.8061573505401611,0.8279817700386047,0.021,0.552901029586792,3.244319200515747
16,0.7970353364944458,0.8095266222953796,0.021,0.5153583884239197,3.6808574199676514
17,0.8061573505401611,0.7466542720794678,0.021,0.5460751056671143,3.5989127159118652
18,0.8061573505401611,0.8063204884529114,0.021,0.4744027256965637,4.0845184326171875
19,0.8004561066627502,0.890985906124115,0.021,0.49829351902008057,3.5779271125793457
20,0.8335233926773071,0.6338547468185425,0.021,0.5221843123435974,3.7737441062927246
21,0.825541615486145,0.63472580909729,0.021,0.5358361601829529,3.951185941696167
22,0.8198403716087341,0.6780040860176086,0.021,0.5426621437072754,4.053330898284912
23,0.8152793645858765,0.7496188282966614,0.021,0.552901029586792,4.248466968536377
24,0.8209806084632874,0.6879763007164001,0.021,0.49146756529808044,4.1423420906066895
25,0.8027365803718567,0.7774994969367981,0.021,0.4846416413784027,4.45180606842041
26,0.851767361164093,0.5604822635650635,0.0069999998,0.5631399154663086,3.879530668258667
27,0.8893956542015076,0.3378344178199768,0.0069999998,0.57337886095047,4.030965805053711
28,0.8871151804924011,0.28248468041419983,0.0069999998,0.57337886095047,4.354130268096924
29,0.8905358910560608,0.2783213257789612,0.0069999998,0.5665528774261475,4.312050819396973
30,0.8973774313926697,0.28216055035591125,0.0069999998,0.5767918229103088,4.258882522583008
31,0.9019384384155273,0.252878874540329,0.0069999998,0.57337886095047,4.169045925140381
32,0.9030786752700806,0.24515342712402344,0.0069999998,0.5631399154663086,4.15080451965332
33,0.9030786752700806,0.22996385395526886,0.0069999998,0.57337886095047,4.097513198852539
34,0.8962371945381165,0.25144508481025696,0.0069999998,0.57337886095047,3.979422092437744
35,0.9019384384155273,0.22951719164848328,0.0069999998,0.5836177468299866,4.334889888763428
36,0.9042189121246338,0.2197144478559494,0.0023333333,0.5836177468299866,4.280169486999512
37,0.9099201560020447,0.2046520859003067,0.0023333333,0.5870307087898254,4.370795249938965
38,0.9179019331932068,0.18472088873386383,0.0023333333,0.5938566327095032,4.490107536315918
39,0.9053592085838318,0.19126738607883453,0.0023333333,0.5870307087898254,4.580414295196533
40,0.9076396822929382,0.18460923433303833,0.0023333333,0.5870307087898254,4.5638747215271
41,0.9099201560020447,0.19140861928462982,0.0023333333,0.5836177468299866,4.6471991539001465
42,0.9122006893157959,0.18693087995052338,0.0023333333,0.5870307087898254,4.627324104309082
43,0.8985176682472229,0.18906749784946442,0.0023333333,0.5836177468299866,4.737450122833252
44,0.9156214594841003,0.19466835260391235,0.0023333333,0.5938566327095032,4.754601955413818
45,0.9167616963386536,0.1837167888879776,0.0023333333,0.5938566327095032,4.709465026855469
46,0.9144811630249023,0.18132071197032928,0.00077777775,0.5904436707496643,4.728584289550781
47,0.9258837103843689,0.16334311664104462,0.00077777775,0.5938566327095032,4.7473344802856445
48,0.9076396822929382,0.18349741399288177,0.00077777775,0.5938566327095032,4.764495372772217
49,0.9179019331932068,0.16845452785491943,0.00077777775,0.5972696542739868,4.773486614227295
50,0.9076396822929382,0.18186241388320923,0.00077777775,0.5972696542739868,4.778660297393799
51,0.9133409261703491,0.17412026226520538,0.00077777775,0.5972696542739868,4.802048206329346
52,0.9224629402160645,0.16683226823806763,0.00077777775,0.5972696542739868,4.836475849151611
53,0.9156214594841003,0.1783149242401123,0.00077777775,0.5972696542739868,4.814009666442871
54,0.9167616963386536,0.17055962979793549,0.00077777775,0.5972696542739868,4.822001934051514
55,0.9087799191474915,0.17556940019130707,0.00077777775,0.5938566327095032,4.822297096252441
56,0.9293044209480286,0.16964681446552277,0.00025925925,0.5938566327095032,4.8261237144470215
57,0.9247434139251709,0.1571187525987625,0.00025925925,0.5972696542739868,4.829639434814453
58,0.9133409261703491,0.18032242357730865,0.00025925925,0.5938566327095032,4.837465763092041
59,0.9133409261703491,0.177535280585289,0.00025925925,0.5938566327095032,4.846919059753418
60,0.9179019331932068,0.17389018833637238,0.00025925925,0.5938566327095032,4.855287075042725
61,0.9213227033615112,0.17660152912139893,0.00025925925,0.5972696542739868,4.849334239959717
62,0.920182466506958,0.16780179738998413,0.00025925925,0.5972696542739868,4.8585429191589355
63,0.9236031770706177,0.1682359278202057,0.00025925925,0.5972696542739868,4.872535705566406
64,0.9247434139251709,0.16203229129314423,0.00025925925,0.5972696542739868,4.881509780883789
65,0.9224629402160645,0.16725140810012817,0.00025925925,0.5972696542739868,4.888728141784668
66,0.9213227033615112,0.16137629747390747,8.641975e-05,0.5972696542739868,4.892860412597656
67,0.9315849542617798,0.16462045907974243,8.641975e-05,0.5972696542739868,4.897247314453125
68,0.9179019331932068,0.16513334214687347,8.641975e-05,0.5972696542739868,4.9022111892700195
69,0.9338654279708862,0.16093583405017853,8.641975e-05,0.5972696542739868,4.903528213500977
70,0.9304447174072266,0.17083077132701874,8.641975e-05,0.5972696542739868,4.906230449676514
71,0.91904217004776,0.16844883561134338,8.641975e-05,0.5972696542739868,4.905426025390625
72,0.9224629402160645,0.15882205963134766,8.641975e-05,0.5972696542739868,4.909590244293213
73,0.9270239472389221,0.16273759305477142,8.641975e-05,0.5972696542739868,4.911770820617676
74,0.9304447174072266,0.16194097697734833,8.641975e-05,0.5972696542739868,4.914468288421631
75,0.920182466506958,0.16934435069561005,8.641975e-05,0.5972696542739868,4.914635181427002
76,0.9087799191474915,0.1793961077928543,2.8806584e-05,0.5972696542739868,4.914254665374756
77,0.9133409261703491,0.17264218628406525,2.8806584e-05,0.5972696542739868,4.913711071014404
78,0.9258837103843689,0.16649910807609558,2.8806584e-05,0.5972696542739868,4.914104461669922
79,0.9236031770706177,0.1645411103963852,2.8806584e-05,0.5972696542739868,4.914881229400635
80,0.9030786752700806,0.17332319915294647,2.8806584e-05,0.5972696542739868,4.9156293869018555
81,0.9156214594841003,0.17065034806728363,2.8806584e-05,0.5972696542739868,4.91575288772583
82,0.9156214594841003,0.17276813089847565,2.8806584e-05,0.5972696542739868,4.915805339813232
83,0.9224629402160645,0.17380349338054657,2.8806584e-05,0.5972696542739868,4.9153571128845215
84,0.9224629402160645,0.16472157835960388,2.8806584e-05,0.5972696542739868,4.916633605957031
85,0.9213227033615112,0.17239096760749817,2.8806584e-05,0.5972696542739868,4.915971279144287
86,0.9213227033615112,0.1712072640657425,9.602195e-06,0.5972696542739868,4.916141986846924
87,0.9236031770706177,0.16397126019001007,9.602195e-06,0.5972696542739868,4.915938377380371
88,0.9270239472389221,0.19056865572929382,9.602195e-06,0.5972696542739868,4.915953159332275
89,0.9167616963386536,0.16724421083927155,9.602195e-06,0.5972696542739868,4.91591215133667
90,0.9293044209480286,0.16004103422164917,9.602195e-06,0.5972696542739868,4.916173458099365
91,0.9236031770706177,0.16978411376476288,9.602195e-06,0.5972696542739868,4.916062831878662
92,0.920182466506958,0.16121937334537506,9.602195e-06,0.5972696542739868,4.916595935821533
93,0.9122006893157959,0.16638103127479553,9.602195e-06,0.5972696542739868,4.916515350341797
94,0.91904217004776,0.16740626096725464,9.602195e-06,0.5972696542739868,4.916689872741699
95,0.9281641840934753,0.16023053228855133,9.602195e-06,0.5972696542739868,4.916675567626953
96,0.9213227033615112,0.16605105996131897,3.2007317e-06,0.5972696542739868,4.9168171882629395
97,0.9167616963386536,0.17476218938827515,3.2007317e-06,0.5972696542739868,4.916750431060791
98,0.9224629402160645,0.16395756602287292,3.2007317e-06,0.5972696542739868,4.916787147521973
99,0.9213227033615112,0.16842737793922424,3.2007317e-06,0.5972696542739868,4.916796684265137
